Ebola Analysis
…
1 Set up

library(tidyverse)
library(readxl) #library(haven)
library(gt)
library(epiR)

theme_set(theme_minimal())

ebola_data_raw <-  read_xlsx('Ebola_Sierra Leone.xlsx')

ebola_data_raw

# A tibble: 11,903 × 8
      id   age   sex status date_of_onset       date_of_sample      district
   <dbl> <dbl> <dbl>  <dbl> <dttm>              <dttm>              <chr>   
 1     1    20     1      1 2014-05-18 00:00:00 2014-05-23 00:00:00 Kailahun
 2     2    42     1      1 2014-05-20 00:00:00 2014-05-25 00:00:00 Kailahun
 3     3    45     1      1 2014-05-20 00:00:00 2014-05-25 00:00:00 Kailahun
 4     4    15     1      1 2014-05-21 00:00:00 2014-05-26 00:00:00 Kailahun
 5     5    19     1      1 2014-05-21 00:00:00 2014-05-26 00:00:00 Kailahun
 6     6    55     1      1 2014-05-21 00:00:00 2014-05-26 00:00:00 Kailahun
 7     7    50     1      1 2014-05-21 00:00:00 2014-05-26 00:00:00 Kailahun
 8     8     8     1      1 2014-05-22 00:00:00 2014-05-27 00:00:00 Kailahun
 9     9    54     1      1 2014-05-22 00:00:00 2014-05-27 00:00:00 Kailahun
10    10    57     1      1 2014-05-22 00:00:00 2014-05-27 00:00:00 Kailahun
# ℹ 11,893 more rows
# ℹ 1 more variable: chiefdom <chr>
…
    )

ebola_data

# A tibble: 11,903 × 9
      id   age sex    status   date_of_onset       date_of_sample      district
   <dbl> <dbl> <fct>  <fct>    <dttm>              <dttm>              <chr>   
 1     1    20 female positive 2014-05-18 00:00:00 2014-05-23 00:00:00 Kailahun
 2     2    42 female positive 2014-05-20 00:00:00 2014-05-25 00:00:00 Kailahun
 3     3    45 female positive 2014-05-20 00:00:00 2014-05-25 00:00:00 Kailahun
 4     4    15 female positive 2014-05-21 00:00:00 2014-05-26 00:00:00 Kailahun
 5     5    19 female positive 2014-05-21 00:00:00 2014-05-26 00:00:00 Kailahun
 6     6    55 female positive 2014-05-21 00:00:00 2014-05-26 00:00:00 Kailahun
 7     7    50 female positive 2014-05-21 00:00:00 2014-05-26 00:00:00 Kailahun
 8     8     8 female positive 2014-05-22 00:00:00 2014-05-27 00:00:00 Kailahun
 9     9    54 female positive 2014-05-22 00:00:00 2014-05-27 00:00:00 Kailahun
10    10    57 female positive 2014-05-22 00:00:00 2014-05-27 00:00:00 Kailahun
# ℹ 11,893 more rows
# ℹ 2 more variables: chiefdom <chr>, age_group <fct>
…
ebola_data %>% 
    drop_na(sex) %>% 
    group_by(district, sex) %>% 
    summarise(count = n(), 
              max_age = max(age, na.rm = TRUE))  # %>% 

# A tibble: 28 × 4
# Groups:   district [14]
   district sex    count max_age
   <chr>    <fct>  <int>   <dbl>
 1 Bo       female   209      87
 2 Bo       male     242      86
 3 Bombali  female   505      90
 4 Bombali  male     469      91
 5 Bonthe   female    37      86
 6 Bonthe   male      39      90
 7 Kailahun female   277      85
 8 Kailahun male     270      80
 9 Kambia   female   191      90
10 Kambia   male     198      90
# ℹ 18 more rows

    # arrange( %>% desc())

The number of positive and negative cases for each district.

ebola_data %>% 
    drop_na() %>% 
    group_by(district, status) %>% 
    summarise(count = n())

# A tibble: 28 × 3
# Groups:   district [14]
   district status   count
   <chr>    <fct>    <int>
 1 Bo       positive   236
 2 Bo       negative   171
 3 Bombali  positive   872
 4 Bombali  negative    55
 5 Bonthe   positive     4
 6 Bonthe   negative    49
 7 Kailahun positive   474
 8 Kailahun negative    42
 9 Kambia   positive   225
10 Kambia   negative   144
# ℹ 18 more rows
…
